<?xml version="1.0" encoding="UTF-8"?>
<svg width="20px" height="20px" viewBox="0 0 20 20" version="1.1" xmlns="http://www.w3.org/2000/svg" xmlns:xlink="http://www.w3.org/1999/xlink">
    <!-- Generator: Sketch 42 (36781) - http://www.bohemiancoding.com/sketch -->
    <title>Page - Add a Job</title>
    <desc>Created with Sketch.</desc>
    <defs></defs>
    <g id="Symbols" stroke="none" stroke-width="1" fill="none" fill-rule="evenodd">
        <g id="Page---Add-a-Job" fill="#37D67A">
            <path d="M11,6 L9,6 L9,9 L6,9 L6,11 L9,11 L9,14 L11,14 L11,11 L14,11 L14,9 L11,9 L11,6 Z M18,14 L20,14 L20,6 L18,6 L18,14 Z M18,18 L16,18 L16,20 L20,20 L20,16 L18,16 L18,18 Z M16,0 L16,2 L18,2 L18,4 L20,4 L20,0 L16,0 Z M0,14 L2,14 L2,6 L0,6 L0,14 Z M2,16 L0,16 L0,20 L4,20 L4,18 L2,18 L2,16 Z M0,0 L0,4 L2,4 L2,2 L4,2 L4,0 L0,0 Z M6,20 L14,20 L14,18 L6,18 L6,20 Z M6,2 L14,2 L14,0 L6,0 L6,2 Z" id="plus-[#1455]"></path>
        </g>
    </g>
</svg>