<?xml version="1.0" encoding="UTF-8" standalone="no"?>
<svg width="12px" height="12px" viewBox="0 0 12 12" version="1.1" xmlns="http://www.w3.org/2000/svg" xmlns:xlink="http://www.w3.org/1999/xlink">
    <!-- Generator: sketchtool 39.1 (31720) - http://www.bohemiancoding.com/sketch -->
    <title>75F352B4-516C-49A2-A467-FB4E0F3A0DAA</title>
    <desc>Created with sketchtool.</desc>
    <defs></defs>
    <g id="05---Explore-the-Opportunity-Section---b---i---Edit-a-Job" stroke="none" stroke-width="1" fill="none" fill-rule="evenodd">
        <g transform="translate(-814.000000, -215.000000)" id="Right-Sidebar" fill="#37D67A">
            <g transform="translate(775.000000, 38.000000)">
                <g id="Your-Jobs" transform="translate(0.000000, 101.000000)">
                    <g id="Created-Jobs" transform="translate(39.000000, 75.000000)">
                        <g id="Job-1">
                            <path d="M10.8,11.8063858 L1.2,11.8063858 L1.2,2.25747252 L6,2.25747252 L6,1.06385836 L0,1.06385836 L0,13 L12,13 L12,7.03192918 L10.8,7.03192918 L10.8,11.8063858 Z M3.6,6.96986124 L9.5034,1 L12,3.4689909 L5.9052,9.41915751 L3.6,9.41915751 L3.6,6.96986124 Z" id="edit-[#1479]"></path>
                        </g>
                    </g>
                </g>
            </g>
        </g>
    </g>
</svg>