<?xml version="1.0" encoding="UTF-8" standalone="no"?>
<svg width="20px" height="13px" viewBox="0 0 20 13" version="1.1" xmlns="http://www.w3.org/2000/svg" xmlns:xlink="http://www.w3.org/1999/xlink">
    <!-- Generator: sketchtool 39.1 (31720) - http://www.bohemiancoding.com/sketch -->
    <title>D666AE60-A78A-403A-974A-0FDEEA4EAB8E</title>
    <desc>Created with sketchtool.</desc>
    <defs></defs>
    <g id="05---Explore-the-Opportunity-Section---b---i---Edit-a-Job" stroke="none" stroke-width="1" fill="none" fill-rule="evenodd">
        <g transform="translate(-479.000000, -340.000000)" id="Page-Builder-Body" fill="#9B9B9B">
            <g transform="translate(0.000000, 98.386667)">
                <g id="3b---Edit-a-Job-(Not-Clicked)" transform="translate(0.000000, 1.000000)">
                    <g id="Job-Information" transform="translate(329.000000, 127.000000)">
                        <g id="Compensation" transform="translate(149.000000, 109.000000)">
                            <path d="M9,11 C9,9.895 9.895,9 11,9 C12.105,9 13,9.895 13,11 C13,12.105 12.105,13 11,13 C9.895,13 9,12.105 9,11 L9,11 Z M17.343,7 L19,7 L19,8.657 L17.343,7 Z M19,15 L17.343,15 L19,13.343 L19,15 Z M3,15 L3,13.343 L4.657,15 L3,15 Z M3,7 L4.657,7 L3,8.657 L3,7 Z M14.515,7 L18.515,11 L14.515,15 L7.485,15 L3.485,11 L7.485,7 L14.515,7 Z M1,17 L21,17 L21,5 L1,5 L1,17 Z" id="money-[#1182]"></path>
                        </g>
                    </g>
                </g>
            </g>
        </g>
    </g>
</svg>