<?xml version="1.0" encoding="UTF-8" standalone="no"?>
<svg width="24px" height="27px" viewBox="0 0 24 27" version="1.1" xmlns="http://www.w3.org/2000/svg" xmlns:xlink="http://www.w3.org/1999/xlink">
    <!-- Generator: sketchtool 39.1 (31720) - http://www.bohemiancoding.com/sketch -->
    <title>6FB3F950-B785-4B46-93C4-37A5043437AE</title>
    <desc>Created with sketchtool.</desc>
    <defs></defs>
    <g id="01---Land---b---Color-Expanded" stroke="none" stroke-width="1" fill="none" fill-rule="evenodd" fill-opacity="0.5">
        <g transform="translate(-651.000000, -60.000000)" id="Page-Editor-Nav" fill="#FFFFFF">
            <g transform="translate(-0.013333, 42.173333)">
                <path d="M663.359727,41.1688889 C668.17298,41.1688889 672.089932,37.3402667 672.089932,32.6355556 C672.089932,27.9308444 668.17298,24.1022222 663.359727,24.1022222 L663.359727,26.9466667 L656.084557,22.68 L663.359727,18.4133333 L663.359727,21.2577778 C669.788068,21.2577778 675,26.3521778 675,32.6355556 C675,38.9189333 669.788068,44.0133333 663.359727,44.0133333 C656.931386,44.0133333 651.719454,39.7466667 651.719454,32.6355556 L654.629523,32.6355556 C654.629523,36.9022222 658.546474,41.1688889 663.359727,41.1688889 Z" id="Undo"></path>
            </g>
        </g>
    </g>
</svg>