<?xml version="1.0" encoding="UTF-8" standalone="no"?>
<svg width="34px" height="13px" viewBox="0 0 34 13" version="1.1" xmlns="http://www.w3.org/2000/svg" xmlns:xlink="http://www.w3.org/1999/xlink">
    <!-- Generator: Sketch 40.3 (33839) - http://www.bohemiancoding.com/sketch -->
    <title>colorSpectrumSelector</title>
    <desc>Created with Sketch.</desc>
    <defs>
        <path d="M3.9992748,7 C1.79053632,7 0,8.79965349 0,10.9999433 L0,12.0000567 C0,14.2091644 1.78679466,16 3.9992748,16 L26.0007252,16 C28.2094637,16 30,14.2003465 30,12.0000567 L30,10.9999433 C30,8.79083562 28.2132053,7 26.0007252,7 L3.9992748,7 Z M4.00069463,10 C3.44802625,10 3,10.4426603 3,10.9989566 L3,12.0010434 C3,12.5527519 3.44746922,13 4.00069463,13 L25.9993054,13 C26.5519738,13 27,12.5573397 27,12.0010434 L27,10.9989566 C27,10.4472481 26.5525308,10 25.9993054,10 L4.00069463,10 Z" id="path-1"></path>
        <filter x="-50%" y="-50%" width="200%" height="200%" filterUnits="objectBoundingBox" id="filter-2">
            <feMorphology radius="1" operator="dilate" in="SourceAlpha" result="shadowSpreadOuter1"></feMorphology>
            <feOffset dx="0" dy="1" in="shadowSpreadOuter1" result="shadowOffsetOuter1"></feOffset>
            <feGaussianBlur stdDeviation="0.5" in="shadowOffsetOuter1" result="shadowBlurOuter1"></feGaussianBlur>
            <feComposite in="shadowBlurOuter1" in2="SourceAlpha" operator="out" result="shadowBlurOuter1"></feComposite>
            <feColorMatrix values="0 0 0 0 0   0 0 0 0 0   0 0 0 0 0  0 0 0 0.126585145 0" type="matrix" in="shadowBlurOuter1"></feColorMatrix>
        </filter>
        <mask id="mask-3" maskContentUnits="userSpaceOnUse" maskUnits="objectBoundingBox" x="-1" y="-1" width="32" height="11">
            <rect x="-1" y="6" width="32" height="11" fill="white"></rect>
            <use xlink:href="#path-1" fill="black"></use>
        </mask>
    </defs>
    <g id="Symbols" stroke="none" stroke-width="1" fill="none" fill-rule="evenodd">
        <g id="colorSpectrum" transform="translate(2.000000, -6.000000)">
            <g id="colorSpectrumSelector">
                <use fill="black" fill-opacity="1" filter="url(#filter-2)" xlink:href="#path-1"></use>
                <use fill="#FFFFFF" fill-rule="evenodd" xlink:href="#path-1"></use>
                <use stroke-opacity="0.121971241" stroke="#000000" mask="url(#mask-3)" stroke-width="2" xlink:href="#path-1"></use>
            </g>
        </g>
    </g>
</svg>