<?xml version="1.0" encoding="UTF-8" standalone="no"?>
<svg width="64px" height="48px" viewBox="0 0 64 48" version="1.1" xmlns="http://www.w3.org/2000/svg" xmlns:xlink="http://www.w3.org/1999/xlink">
    <!-- Generator: Sketch 40.3 (33839) - http://www.bohemiancoding.com/sketch -->
    <title>Conversation Icon</title>
    <desc>Created with Sketch.</desc>
    <defs>
        <rect id="path-1" x="0" y="0" width="90.0266667" height="89.1733333"></rect>
        <rect id="path-3" x="0" y="0" width="90.0266667" height="89.1733333"></rect>
    </defs>
    <g id="04---Team-Section---b---i---Click-on-Add-Team-Card" stroke="none" stroke-width="1" fill="none" fill-rule="evenodd">
        <g id="Pages" transform="translate(-344.000000, -282.000000)">
            <g id="Page-Builder-Body" transform="translate(0.000000, 105.386667)">
                <g id="4th-section---team-" transform="translate(0.426667, 77.653333)">
                    <g id="Conversation-Icon" transform="translate(329.813333, 75.093333)">
                        <g id="Group">
                            <g id="Clipped">
                                <mask id="mask-2" fill="white">
                                    <use xlink:href="#path-1"></use>
                                </mask>
                                <g id="SVGID_1_"></g>
                                <path d="M73.1466667,24.3833333 L32.3533333,24.3833333 C30.02319,24.3833333 28.1333333,26.2552767 28.1333333,28.5633333 L28.1333333,52.25 C28.1333333,54.5580567 30.02319,56.43 32.3533333,56.43 L60.5773967,56.43 C63.0664933,58.74572 67.8294667,63.17443 68.2528733,63.55481 C68.8274967,64.0717367 70.3333333,63.8174533 70.3333333,62.64148 L70.3333333,56.4293033 L73.1466667,56.4293033 C75.47681,56.4293033 77.3666667,54.55736 77.3666667,52.2493033 L77.3666667,28.5633333 C77.3666667,26.2552767 75.47681,24.3833333 73.1466667,24.3833333" id="Shape" fill="#939393" mask="url(#mask-2)"></path>
                            </g>
                            <g id="Clipped">
                                <mask id="mask-4" fill="white">
                                    <use xlink:href="#path-3"></use>
                                </mask>
                                <g id="SVGID_1_"></g>
                                <path d="M45.7166667,41.1033333 L18.2866667,41.1033333 C15.9565233,41.1033333 14.0666667,42.9752767 14.0666667,45.2833333 L14.0666667,59.9133333 C14.0666667,62.22139 15.9565233,64.0933333 18.2866667,64.0933333 L21.1,64.0933333 L21.1,70.30551 C21.1,71.4814833 22.6058367,71.73507 23.18046,71.21884 C23.6038667,70.8382858 28.36684,66.40975 30.8559367,64.09403 L45.7166667,64.09403 C48.04681,64.09403 49.9366667,62.2220867 49.9366667,59.91403 L49.9366667,45.2833333 C49.9366667,42.9752767 48.04681,41.1033333 45.7166667,41.1033333 L27.2712991,52.7697927" id="Shape" fill="#C6C6C6" mask="url(#mask-4)"></path>
                            </g>
                        </g>
                    </g>
                </g>
            </g>
        </g>
    </g>
</svg>