<?xml version="1.0" encoding="UTF-8"?>
<svg width="40px" height="40px" viewBox="0 0 40 40" version="1.1" xmlns="http://www.w3.org/2000/svg" xmlns:xlink="http://www.w3.org/1999/xlink">
    <!-- Generator: Sketch 42 (36781) - http://www.bohemiancoding.com/sketch -->
    <title>Duplicate - Inactive</title>
    <desc>Created with Sketch.</desc>
    <defs></defs>
    <g id="Symbols" stroke="none" stroke-width="1" fill="none" fill-rule="evenodd">
        <g id="Duplicate---Inactive" fill="#FFFFFF">
            <path d="M27.015952,3 L8.145136,3 C6.4153112,3 5,4.43024733 5,6.1783274 L5,28.4266192 L8.145136,28.4266192 L8.145136,6.1783274 L27.015952,6.1783274 L27.015952,3 L27.015952,3 L27.015952,3 Z M31.733656,9.35665479 L14.435408,9.35665479 C12.7055832,9.35665479 11.290272,10.7869021 11.290272,12.5349822 L11.290272,34.783274 C11.290272,36.531354 12.7055832,37.9616014 14.435408,37.9616014 L31.733656,37.9616014 C33.4634808,37.9616014 34.878792,36.531354 34.878792,34.783274 L34.878792,12.5349822 C34.878792,10.7869021 33.4634808,9.35665479 31.733656,9.35665479 L31.733656,9.35665479 L31.733656,9.35665479 Z M31.733656,34.783274 L14.435408,34.783274 L14.435408,12.5349822 L31.733656,12.5349822 L31.733656,34.783274 L31.733656,34.783274 L31.733656,34.783274 Z" id="Duplicate"></path>
        </g>
    </g>
</svg>