<?xml version="1.0" encoding="UTF-8"?>
<svg width="40px" height="40px" viewBox="0 0 40 40" version="1.1" xmlns="http://www.w3.org/2000/svg" xmlns:xlink="http://www.w3.org/1999/xlink">
    <!-- Generator: Sketch 42 (36781) - http://www.bohemiancoding.com/sketch -->
    <title>Edit - Active</title>
    <desc>Created with Sketch.</desc>
    <defs></defs>
    <g id="Symbols" stroke="none" stroke-width="1" fill="none" fill-rule="evenodd">
        <g id="Edit---Active" fill="#50E3C2">
            <path d="M34.1710443,34.5186254 L6.46344937,34.5186254 L6.46344937,6.66762819 L20.3172468,6.66762819 L20.3172468,3.18625354 L3,3.18625354 L3,38 L37.6344937,38 L37.6344937,20.5931268 L34.1710443,20.5931268 L34.1710443,34.5186254 Z M13.3903481,20.4120953 L30.4287873,3 L37.6344937,10.2012235 L20.0436343,27.5558761 L13.3903481,27.5558761 L13.3903481,20.4120953 Z" id="edit-[#1479]"></path>
        </g>
    </g>
</svg>