<?xml version="1.0" encoding="UTF-8"?>
<svg width="40px" height="40px" viewBox="0 0 40 40" version="1.1" xmlns="http://www.w3.org/2000/svg" xmlns:xlink="http://www.w3.org/1999/xlink">
    <!-- Generator: Sketch 42 (36781) - http://www.bohemiancoding.com/sketch -->
    <title>Edit - Inactive</title>
    <desc>Created with Sketch.</desc>
    <defs></defs>
    <g id="Symbols" stroke="none" stroke-width="1" fill="none" fill-rule="evenodd">
        <g id="Edit---Inactive" fill="#FFFFFF">
            <path d="M34.1710443,33.5186254 L6.46344937,33.5186254 L6.46344937,5.66762819 L20.3172468,5.66762819 L20.3172468,2.18625354 L3,2.18625354 L3,37 L37.6344937,37 L37.6344937,19.5931268 L34.1710443,19.5931268 L34.1710443,33.5186254 Z M13.3903481,19.4120953 L30.4287873,2 L37.6344937,9.20122345 L20.0436343,26.5558761 L13.3903481,26.5558761 L13.3903481,19.4120953 Z" id="edit-[#1479]"></path>
        </g>
    </g>
</svg>