<?xml version="1.0" encoding="utf-8"?>
<!-- Generator: Adobe Illustrator 15.0.0, SVG Export Plug-In . SVG Version: 6.00 Build 0)  -->
<!DOCTYPE svg PUBLIC "-//W3C//DTD SVG 1.1//EN" "http://www.w3.org/Graphics/SVG/1.1/DTD/svg11.dtd">
<svg version="1.1" id="Layer_1" xmlns="http://www.w3.org/2000/svg" xmlns:xlink="http://www.w3.org/1999/xlink" x="0px" y="0px"
	 width="1386px" height="856px" viewBox="0 0 1386 856" enable-background="new 0 0 1386 856" xml:space="preserve">
<rect fill="none" width="1386" height="856"/>
<g>
	<defs>
		<rect id="SVGID_1_" x="437" y="172" width="512" height="512"/>
	</defs>
	<clipPath id="SVGID_2_">
		<use xlink:href="#SVGID_1_"  overflow="visible"/>
	</clipPath>
	<path clip-path="url(#SVGID_2_)" fill="#E9E9E9" d="M601,551.238l-140,61.266v44.145l140-35V551.238z M643.942,627.988
		l17.914-70.267L617,548.104v73.469L643.942,627.988z M925,533.094l-24.734,8.347c4.685,32.876,6.398,67.029,5.296,102.399
		L925,641.41V533.094L925,533.094z M838.148,364.442c23.949,39.44,41.292,81.822,52.441,126.958
		c0.853,3.449,1.668,6.918,2.446,10.397L925,491.01V353.584L838.148,364.442z M500.542,551.662l-16.762-60.348
		c-1.29-4.666-0.808-9.4,1.036-13.494l50.442-127.036L461,369.35v199.618L500.542,551.662z M769,657.764v-77.06l-68.028-14.592
		l-18.128,71.136L769,657.764z M785,580.344v78.568l80.46-10.056c1.332-32.664,0.14-64.156-3.708-94.414L785,580.344z M785,371.086
		v167.172l69.996-23.622c-0.984-4.6-2.036-9.17-3.156-13.706c-11.624-47.069-30.618-90.824-57.532-131.006L785,371.086z
		 M446.746,348.21l80.64-20.162c5.176,13.122,12.254,25.592,20.422,37.688l15.352,22.73l-39.164,98.626l13.454,48.42l63.55-27.81
		V444.5l16,23.692v39.071l152,32.603V370.424l-13.246-3.154l1.036-1.534c4.414-6.538,8.512-13.186,12.16-19.984l8.718,2.074
		l157.878-19.736c6.578-0.802,12.559,3.878,13.36,10.452c0.062,0.49,0.09,0.974,0.09,1.454H949v312.002
		c0,6.252-4.778,11.386-10.882,11.948l-159.664,19.96c-1.54,0.188-3.05,0.074-4.468-0.294l-164.942-39.274l-157.138,39.288
		c-6.418,1.604-12.926-2.298-14.532-8.718c-0.242-0.973-0.356-1.948-0.36-2.906H437V359.998
		C437,354.142,441.196,349.266,446.746,348.21z"/>
</g>
<g>
	<defs>
		<rect id="SVGID_3_" x="437" y="172" width="512" height="512"/>
	</defs>
	<clipPath id="SVGID_4_">
		<use xlink:href="#SVGID_3_"  overflow="visible"/>
	</clipPath>
	<path clip-path="url(#SVGID_4_)" fill-rule="evenodd" clip-rule="evenodd" fill="#E9E9E9" d="M652.296,219.372
		c-33.136,0-60,26.864-60,60c0,33.136,26.864,60,60,60c33.136,0,60-26.864,60-60C712.296,246.236,685.434,219.372,652.296,219.372z
		 M736.902,352.304c13.876-20.55,25.394-43.568,25.394-70.3c0-60.75-49.25-110.002-110-110.002s-110,49.25-110,110.002
		c0,26.734,11.524,49.756,25.398,70.3l78.964,116.921c1.262,1.864,3.382,2.643,5.636,2.643c2.258,0,4.378-0.776,5.64-2.643
		L736.902,352.304z"/>
</g>
<rect fill="none" width="1386" height="856"/>
</svg>
